e622zd|demio|black|200867|1218918
k977a|fit|green|150453|868353
p046kl|solaris|gray|25147|1061253
b189p|camry|green|21080|812734
f231aw|solaris|green|129644|1099816
o440ha|camry|yellow|169897|1353858
z656lh|camry|green|231002|753761
y195bg|passage|green|186428|1355790
d923os|passage|green|68241|1090484
j48bc|panamera|green|179078|910483
n424lh|solaris|blue|175921|487939
z541mx|teana|white|189770|621905
h655sf|teana|blue|96217|1242829
f149xo|demio|black|85487|1120143
j152ru|demio|white|129265|1173751
o365pq|panamera|blue|230012|1431882
d952sx|teana|red|132589|1170024
t82ev|panamera|green|34546|1345789
i536gr|passage|blue|69534|961542
s398i|panamera|white|8280|772121
d795pr|vitz|black|236885|1434356
h95kg|teana|yellow|115291|918533
s580jr|vitz|blue|15899|1325822
j597pj|fit|yellow|207249|462989
j02xk|panamera|black|61044|1310108
m496ec|panamera|red|32758|651602
t175zw|vitz|green|84051|971289
s048wq|panamera|white|166736|1316405
360uq|camry|green|191392|700788
j136ls|vitz|red|194420|688728
q859bx|camry|black|184702|1290329
v557ta|demio|black|61703|1353896
z51rd|solaris|white|154718|509034
u806qy|camry|green|193131|560391
b05zg|solaris|black|213222|1281191
u786bh|vitz|black|222997|375853
m686sb|solaris|red|244854|897735
f669co|solaris|blue|230706|752161
n106bd|passage|yellow|188389|1292180
f949mu|passage|yellow|228641|1465253
c845jr|camry|black|18462|1025465
g217nr|camry|green|89721|569180
k941aq|passage|blue|165803|1168970
z503tf|teana|blue|194505|496823
b814wo|solaris|gray|221832|410089
d511iz|panamera|black|137209|1447077
v527qh|solaris|black|207316|923951
y028mp|camry|white|105850|1246633
u627ux|solaris|blue|217862|1432147
f633pc|vitz|yellow|182074|349239
h200ry|panamera|black|26585|684994
n950wr|teana|black|210661|384525
g679fy|passage|gray|80153|707251
m348ec|demio|blue|82675|1289188
m056ib|solaris|blue|128762|1175316
n132a|vitz|blue|77180|1199628
x669cc|panamera|white|73566|1339609
k822p|vitz|white|161118|466138
j504rx|fit|yellow|24933|1130115
t635qe|fit|black|139688|301447
q642ed|fit|gray|81182|416775
i09hv|camry|white|93260|1338707
j595ml|panamera|green|151866|458417
g467rw|fit|white|6458|910348
c623et|passage|white|170536|444781
y157wi|passage|red|37898|1319334
i706ox|teana|gray|88922|480744
z659ec|camry|blue|13661|426755
g768bb|camry|gray|228462|963221
u008hn|vitz|green|111503|1256751
q723av|solaris|gray|149037|1406034
a31vz|passage|white|30014|1263774
g706ru|solaris|black|244473|1059516
p960uo|vitz|gray|40061|885642
m441mx|vitz|black|98275|1243865
m920pn|demio|gray|28508|1167331
b684np|fit|gray|195683|322343
t604hd|fit|red|57328|915181
o823xx|passage|yellow|174964|906515
m146xv|solaris|gray|90839|591703
f880pv|fit|gray|210909|739850
n293ho|camry|blue|13126|334124
e002cv|panamera|green|123464|552268
c632ew|demio|blue|139343|914465
y196s|fit|green|135777|1374368
a825yb|vitz|black|220014|1068218
c670mz|passage|blue|227926|875649
y592ky|vitz|green|134739|1210237
c971xq|teana|red|55317|814851
q049gm|fit|red|154247|966832
n124ru|camry|blue|232740|1290505
c82ly|teana|blue|186772|845172
k941aa|passage|blue|100474|321920
t751t|camry|gray|189461|1252079
l081yo|teana|black|220992|1184580
q457my|passage|gray|113771|1450962
m722ns|passage|black|114464|677808
t207oy|demio|green|195758|566698
n34fa|camry|red|82313|1452561
b560ya|vitz|white|142466|1077786
